{
  "renderer": true,
  "color": true,
  "window-config": "tests/unittest/support/window.config.json",
  "script": [
    "tests/unittest/support/preload.js"
  ],
  "url": "tests/unittest/support/index.html"
}
